[0] Config.pm:324> INFO - This is Biber 2.1
[1] Config.pm:327> INFO - Logfile is 'draftPR..blg'
[140] biber-darwin:276> INFO - === Tue Jun 14, 2016, 15:00:29
[320] Utils.pm:162> ERROR - Cannot find control file 'draftPR..bcf'! - did you pass the "backend=biber" option to BibLaTeX?
[320] Biber.pm:110> INFO - ERRORS: 1
