\relax 
\providecommand\hyper@newdestlabel[2]{}
\catcode `"\active 
\catcode `<\active 
\catcode `>\active 
\@nameuse{es@quoting}
\providecommand\HyperFirstAtBeginDocument{\AtBeginDocument}
\HyperFirstAtBeginDocument{\ifx\hyper@anchor\@undefined
\global\let\oldcontentsline\contentsline
\gdef\contentsline#1#2#3#4{\oldcontentsline{#1}{#2}{#3}}
\global\let\oldnewlabel\newlabel
\gdef\newlabel#1#2{\newlabelxx{#1}#2}
\gdef\newlabelxx#1#2#3#4#5#6{\oldnewlabel{#1}{{#2}{#3}}}
\AtEndDocument{\ifx\hyper@anchor\@undefined
\let\contentsline\oldcontentsline
\let\newlabel\oldnewlabel
\fi}
\fi}
\global\let\hyper@last\relax 
\gdef\HyperFirstAtBeginDocument#1{#1}
\providecommand\HyField@AuxAddToFields[1]{}
\providecommand\HyField@AuxAddToCoFields[2]{}
\select@language{spanish}
\@writefile{toc}{\select@language{spanish}}
\@writefile{lof}{\select@language{spanish}}
\@writefile{lot}{\select@language{spanish}}
\select@language{spanish}
\@writefile{toc}{\select@language{spanish}}
\@writefile{lof}{\select@language{spanish}}
\@writefile{lot}{\select@language{spanish}}
\citation{akay2001scanning}
\citation{akil2016neuroscience}
\citation{akil2016neuroscience}
\citation{norris2015developing}
\citation{norris2015developing}
\citation{norris2015developing}
\citation{dominique2006NeuralEng}
\citation{dominique2006NeuralEng}
\@writefile{toc}{\contentsline {chapter}{\numberline {1}Introducci\IeC {\'o}n y Objetivos}{2}{chapter.1}}
\@writefile{lof}{\addvspace {10\p@ }}
\@writefile{lot}{\addvspace {10\p@ }}
\newlabel{cap:intro}{{1}{2}{Introducción y Objetivos}{chapter.1}{}}
\@writefile{toc}{\contentsline {section}{\numberline {1.1}Motivaci\IeC {\'o}n}{2}{section.1.1}}
\@writefile{lof}{\contentsline {figure}{\numberline {1.1}{\ignorespaces Modelo conceptual de variados factores que contribuyen a mejorar la investigaci\IeC {\'o}n innovativa\cite  {norris2015developing}.\relax }}{3}{figure.caption.1}}
\providecommand*\caption@xref[2]{\@setref\relax\@undefined{#1}}
\newlabel{fig:education_eng}{{1.1}{3}{Modelo conceptual de variados factores que contribuyen a mejorar la investigación innovativa\cite {norris2015developing}.\relax }{figure.caption.1}{}}
\@writefile{toc}{\contentsline {subsection}{\numberline {1.1.1}Neurociencia + Ingenier\IeC {\'\i }a = Neuroingenier\IeC {\'\i }a}{3}{subsection.1.1.1}}
\@writefile{toc}{\contentsline {section}{\numberline {1.2}Objetivos generales y espec\IeC {\'\i }ficos}{3}{section.1.2}}
\@writefile{toc}{\contentsline {subsection}{\numberline {1.2.1}Objetivo General}{3}{subsection.1.2.1}}
\@writefile{toc}{\contentsline {subsection}{\numberline {1.2.2}Objetivos Espec\IeC {\'\i }ficos}{4}{subsection.1.2.2}}
\@writefile{toc}{\contentsline {section}{\numberline {1.3}Alcances}{4}{section.1.3}}
\@writefile{toc}{\contentsline {section}{\numberline {1.4}Descripci\IeC {\'o}n de cap\IeC {\'\i }tulos}{4}{section.1.4}}
\citation{dawson1931edwin}
\@writefile{toc}{\contentsline {chapter}{\numberline {2}Antecedentes}{6}{chapter.2}}
\@writefile{lof}{\addvspace {10\p@ }}
\@writefile{lot}{\addvspace {10\p@ }}
\newlabel{cap:antecedentes}{{2}{6}{Antecedentes}{chapter.2}{}}
\@writefile{toc}{\contentsline {section}{\numberline {2.1}Introducci\IeC {\'o}n}{6}{section.2.1}}
\@writefile{toc}{\contentsline {section}{\numberline {2.2}Hitos m\IeC {\'a}s importantes de la Neurociencia}{6}{section.2.2}}
\citation{jeong2015wireless}
\citation{Lewis1968,Lewis1968-IEEE}
\citation{eliasmith2004neural}
\citation{HODGKIN1952}
\@writefile{toc}{\contentsline {section}{\numberline {2.3}Interacci\IeC {\'o}n entre Neurociencia e Ingenier\IeC {\'\i }a El\IeC {\'e}ctrica}{7}{section.2.3}}
\citation{HODGKIN1952}
\citation{HODGKIN1952}
\citation{markram2006blue}
\citation{rall2011core}
\citation{hines1997neuron}
\@writefile{toc}{\contentsline {subsection}{\numberline {2.3.1}La Neurona como un circuito el\IeC {\'e}ctrico}{8}{subsection.2.3.1}}
\@writefile{lof}{\contentsline {figure}{\numberline {2.1}{\ignorespaces Modelo el\IeC {\'e}ctrico de la neurona, mostrado por Hodgkin y Huxley en su publicaci\IeC {\'o}n de 1952\cite  {HODGKIN1952}.\relax }}{8}{figure.caption.2}}
\newlabel{fig:hh-paper.png}{{2.1}{8}{Modelo eléctrico de la neurona, mostrado por Hodgkin y Huxley en su publicación de 1952\cite {HODGKIN1952}.\relax }{figure.caption.2}{}}
\@writefile{toc}{\contentsline {subsection}{\numberline {2.3.2}El Ax\IeC {\'o}n como linea de transmisi\IeC {\'o}n}{8}{subsection.2.3.2}}
\citation{dimitrov2011information}
\citation{van1988real}
\citation{shannon1948}
\@writefile{lof}{\contentsline {figure}{\numberline {2.2}{\ignorespaces Dibujo de una neurona, se\IeC {\~n}alando sus partes m\IeC {\'a}s caracter\IeC {\'\i }sticas. Imagen con licencia CC BY-SA.\relax }}{9}{figure.caption.3}}
\newlabel{fig:neurona.png}{{2.2}{9}{Dibujo de una neurona, señalando sus partes más características. Imagen con licencia CC BY-SA.\relax }{figure.caption.3}{}}
\@writefile{toc}{\contentsline {subsection}{\numberline {2.3.3}La neurona como codificador analogo digital}{9}{subsection.2.3.3}}
\citation{scott2004optimal,todorov2004optimality}
\citation{todorov2004optimality}
\citation{scott2004optimal,todorov2004optimality}
\citation{scott2004optimal}
\citation{todorov2004optimality}
\citation{scott2004optimal}
\citation{todorov2004optimality}
\citation{todorov2002optimal}
\citation{scott2004optimal}
\@writefile{toc}{\contentsline {subsection}{\numberline {2.3.4}Los circuitos neuronales como controladores \IeC {\'o}ptimos}{10}{subsection.2.3.4}}
\@writefile{lof}{\contentsline {figure}{\numberline {2.3}{\ignorespaces Dibujo esquem\IeC {\'a}tico de control \IeC {\'o}ptimo en lazo cerrado. Imagen extra\IeC {\'\i }da de \cite  {scott2004optimal}, modificada de\cite  {todorov2004optimality}.\relax }}{10}{figure.caption.4}}
\newlabel{fig:controlNature.png}{{2.3}{10}{Dibujo esquemático de control óptimo en lazo cerrado. Imagen extraída de \cite {scott2004optimal}, modificada de\cite {todorov2004optimality}.\relax }{figure.caption.4}{}}
\@writefile{toc}{\contentsline {section}{\numberline {2.4}Panorama mundial}{11}{section.2.4}}
\@writefile{toc}{\contentsline {subsection}{\numberline {2.4.1}Programas gubernamentales e intergubernamentales}{11}{subsection.2.4.1}}
\@writefile{toc}{\contentsline {subsubsection}{Human Connectome Project (HCP) - Estados Unidos}{11}{section*.5}}
\@writefile{toc}{\contentsline {subsubsection}{BRAIN Initiative - Estados Unidos}{11}{section*.6}}
\citation{markram2006blue}
\citation{HBProject2015}
\citation{HBProject2015}
\citation{fregnac2014neuroscience}
\@writefile{toc}{\contentsline {subsubsection}{Blue Brain Project (BBP) - Europa}{12}{section*.7}}
\@writefile{toc}{\contentsline {subsubsection}{Human Brain Project (HBP) - Europa}{12}{section*.8}}
\@writefile{toc}{\contentsline {subsection}{\numberline {2.4.2}Programas acad\IeC {\'e}micos}{13}{subsection.2.4.2}}
\@writefile{toc}{\contentsline {subsubsection}{Massachusetts Institute of Technology (MIT) - Estados Unidos}{13}{section*.9}}
\@writefile{lof}{\contentsline {figure}{\numberline {2.4}{\ignorespaces Programa del MIT, mostrando la estructura del minor en neurociencia. Extraido desde \url  {https://bcs.mit.edu}\relax }}{14}{figure.caption.10}}
\newlabel{fig:MIT_Tier.png}{{2.4}{14}{Programa del MIT, mostrando la estructura del minor en neurociencia. Extraido desde \url {https://bcs.mit.edu}\relax }{figure.caption.10}{}}
\@writefile{toc}{\contentsline {subsection}{\numberline {2.4.3}Programas de Doctorado en Neurociencias}{14}{subsection.2.4.3}}
\@writefile{toc}{\contentsline {section}{\numberline {2.5}Descripci\IeC {\'o}n del problema}{14}{section.2.5}}
\@writefile{toc}{\contentsline {section}{\numberline {2.6}Conclusiones}{15}{section.2.6}}
\citation{handelsman2004scientific}
\citation{hoskins2008using}
\@writefile{toc}{\contentsline {chapter}{\numberline {3}Metodolog\IeC {\'\i }as de Ense\IeC {\~n}anza: Neurociencia e Ingenier\IeC {\'\i }a}{16}{chapter.3}}
\@writefile{lof}{\addvspace {10\p@ }}
\@writefile{lot}{\addvspace {10\p@ }}
\newlabel{cap:ense\IeC {\~n}anza}{{3}{16}{Metodologías de Enseñanza: Neurociencia e Ingeniería}{chapter.3}{}}
\@writefile{toc}{\contentsline {section}{\numberline {3.1}Introducci\IeC {\'o}n}{16}{section.3.1}}
\@writefile{toc}{\contentsline {section}{\numberline {3.2}Ense\IeC {\~n}anza en Ciencia}{16}{section.3.2}}
\citation{maillardet2004outcome}
\citation{maillardet2004outcome}
\@writefile{toc}{\contentsline {section}{\numberline {3.3}Ense\IeC {\~n}anza en Ingenier\IeC {\'\i }a}{17}{section.3.3}}
\citation{baillie2004effective,kalman2008successful,wankat2015teaching}
\citation{crawley2001cdio}
\citation{in1996learning}
\citation{crawley2001cdio}
\citation{crawley2001cdio}
\citation{crawley2001cdio}
\@writefile{toc}{\contentsline {subsection}{\numberline {3.3.1}Iniciativa CDIO}{18}{subsection.3.3.1}}
\@writefile{toc}{\contentsline {section}{\numberline {3.4}Conclusiones}{19}{section.3.4}}
\citation{dayan2001theoretical,izhikevich2007,lytton2007computer,purves2007,quiroga2013principles,schutter2009computational,sterratt2011principles}
\citation{leek2016ModernSci}
\citation{purves2007}
\citation{lytton2007computer}
\citation{jonas2016could}
\@writefile{toc}{\contentsline {chapter}{\numberline {4}Dise\IeC {\~n}o del curso}{20}{chapter.4}}
\@writefile{lof}{\addvspace {10\p@ }}
\@writefile{lot}{\addvspace {10\p@ }}
\newlabel{cap:curso}{{4}{20}{Diseño del curso}{chapter.4}{}}
\@writefile{toc}{\contentsline {section}{\numberline {4.1}Introducci\IeC {\'o}n}{20}{section.4.1}}
\@writefile{toc}{\contentsline {section}{\numberline {4.2}Primera Unidad: Aspectos generales en Neurociencia}{20}{section.4.2}}
\citation{HODGKIN1952}
\citation{rall2011core}
\citation{HODGKIN1952}
\citation{rall2011core}
\citation{hines1997neuron}
\@writefile{toc}{\contentsline {subsection}{\numberline {4.2.1}Referencias para la Unidad}{21}{subsection.4.2.1}}
\@writefile{toc}{\contentsline {section}{\numberline {4.3}Segunda Unidad: Bases el\IeC {\'e}ctricas de las neuronas (biof\IeC {\'\i }sica)}{21}{section.4.3}}
\citation{hines1997neuron,HODGKIN1952,rall2011core}
\citation{purves2007}
\citation{schiff2012neural}
\citation{sterratt2011principles}
\citation{izhikevich2007,izhikevich2000}
\citation{izhikevich2000}
\citation{izhikevich2000}
\citation{brette2007}
\citation{schiff2012neural}
\citation{sterratt2011principles}
\citation{gerstner2002}
\citation{gerstner2014}
\citation{izhikevich2007}
\@writefile{toc}{\contentsline {subsection}{\numberline {4.3.1}Referencias para la Unidad}{22}{subsection.4.3.1}}
\@writefile{toc}{\contentsline {section}{\numberline {4.4}Tercera Unidad: Modelos Simplificados de Neuronas (Neurociencia computacional)}{22}{section.4.4}}
\citation{victor1997metric,victor2005spike}
\citation{van2001novel}
\citation{quiroga2004unsupervised}
\citation{marre2012mapping}
\citation{dayan2001theoretical}
\citation{feng2003computational}
\citation{lytton2007computer}
\citation{quiroga2013principles}
\citation{rojas2011differential}
\@writefile{toc}{\contentsline {subsection}{\numberline {4.4.1}Referencias para la Unidad}{23}{subsection.4.4.1}}
\@writefile{toc}{\contentsline {section}{\numberline {4.5}Cuarta Unidad: Codificaci\IeC {\'o}n y decodificaci\IeC {\'o}n neuronal (Neurociencia te\IeC {\'o}rica)}{23}{section.4.5}}
\@writefile{toc}{\contentsline {subsection}{\numberline {4.5.1}Referencias para la Unidad}{23}{subsection.4.5.1}}
\@writefile{toc}{\contentsline {section}{\numberline {4.6}Quinta Unidad: T\IeC {\'o}picos adicionales en Neurociencia}{23}{section.4.6}}
\citation{dauvermann2015computational}
\citation{anticevic2015bridging}
\@writefile{toc}{\contentsline {section}{\numberline {4.7}Duraci\IeC {\'o}n, formato y evaluaci\IeC {\'o}n del curso}{24}{section.4.7}}
\@writefile{toc}{\contentsline {subsection}{\numberline {4.7.1}Duraci\IeC {\'o}n}{24}{subsection.4.7.1}}
\@writefile{toc}{\contentsline {subsection}{\numberline {4.7.2}Formato y Evaluaci\IeC {\'o}n}{24}{subsection.4.7.2}}
\newlabel{fig:programa}{{\caption@xref {fig:programa}{ on input line 423}}{25}{Formato y Evaluación}{figure.caption.11}{}}
\@writefile{toc}{\contentsline {section}{\numberline {4.8}Conclusiones}{26}{section.4.8}}
\citation{wilensky1999gaslab}
\citation{schettino2014neurolab}
\citation{neuronPython2009}
\@writefile{toc}{\contentsline {chapter}{\numberline {5}Dise\IeC {\~n}o del Laboratorio}{27}{chapter.5}}
\@writefile{lof}{\addvspace {10\p@ }}
\@writefile{lot}{\addvspace {10\p@ }}
\newlabel{cap:lab}{{5}{27}{Diseño del Laboratorio}{chapter.5}{}}
\@writefile{toc}{\contentsline {section}{\numberline {5.1}Introducci\IeC {\'o}n}{27}{section.5.1}}
\@writefile{toc}{\contentsline {section}{\numberline {5.2}Experiencia 1: Potencial de acci\IeC {\'o}n y sinapsis}{27}{section.5.2}}
\@writefile{toc}{\contentsline {section}{\numberline {5.3}Experiencia 2: Introducci\IeC {\'o}n a NEURON}{27}{section.5.3}}
\citation{eyal2014dendrites}
\citation{molitor2006matlab}
\citation{yan2010experimental}
\citation{jackson2014neurophysiological,klimesch1999eeg,teplan2002fundamentals}
\@writefile{toc}{\contentsline {section}{\numberline {5.4}Experiencia 3: Modificaci\IeC {\'o}n del potencial de acci\IeC {\'o}n debido a la carga dendr\IeC {\'\i }tica}{28}{section.5.4}}
\@writefile{toc}{\contentsline {section}{\numberline {5.5}Experiencia 4: Simulaci\IeC {\'o}n y c\IeC {\'a}lculo de un modelo de canal I\IeC {\'o}nico}{28}{section.5.5}}
\@writefile{toc}{\contentsline {section}{\numberline {5.6}Experiencia 5: Registro y an\IeC {\'a}lisis de ondas cerebrales mediante interfaz electr\IeC {\'o}nica}{29}{section.5.6}}
\@writefile{toc}{\contentsline {section}{\numberline {5.7}Conclusiones}{29}{section.5.7}}
\@writefile{toc}{\contentsline {chapter}{\numberline {6}Conclusiones}{30}{chapter.6}}
\@writefile{lof}{\addvspace {10\p@ }}
\@writefile{lot}{\addvspace {10\p@ }}
\newlabel{cap:conclusiones}{{6}{30}{Conclusiones}{chapter.6}{}}
