\relax 
\providecommand\hyper@newdestlabel[2]{}
\catcode `"\active 
\catcode `<\active 
\catcode `>\active 
\@nameuse{es@quoting}
\providecommand\HyperFirstAtBeginDocument{\AtBeginDocument}
\HyperFirstAtBeginDocument{\ifx\hyper@anchor\@undefined
\global\let\oldcontentsline\contentsline
\gdef\contentsline#1#2#3#4{\oldcontentsline{#1}{#2}{#3}}
\global\let\oldnewlabel\newlabel
\gdef\newlabel#1#2{\newlabelxx{#1}#2}
\gdef\newlabelxx#1#2#3#4#5#6{\oldnewlabel{#1}{{#2}{#3}}}
\AtEndDocument{\ifx\hyper@anchor\@undefined
\let\contentsline\oldcontentsline
\let\newlabel\oldnewlabel
\fi}
\fi}
\global\let\hyper@last\relax 
\gdef\HyperFirstAtBeginDocument#1{#1}
\providecommand\HyField@AuxAddToFields[1]{}
\providecommand\HyField@AuxAddToCoFields[2]{}
\abx@aux@sortscheme{nty}
\@input{cubierta.aux}
\select@language{spanish}
\@writefile{toc}{\select@language{spanish}}
\@writefile{lof}{\select@language{spanish}}
\@writefile{lot}{\select@language{spanish}}
\@writefile{toc}{\boolfalse {citerequest}\boolfalse {citetracker}\boolfalse {pagetracker}\boolfalse {backtracker}\relax }
\@writefile{lof}{\boolfalse {citerequest}\boolfalse {citetracker}\boolfalse {pagetracker}\boolfalse {backtracker}\relax }
\@writefile{lot}{\boolfalse {citerequest}\boolfalse {citetracker}\boolfalse {pagetracker}\boolfalse {backtracker}\relax }
\select@language{spanish}
\@writefile{toc}{\defcounter {refsection}{0}\relax }\@writefile{toc}{\select@language{spanish}}
\@writefile{lof}{\defcounter {refsection}{0}\relax }\@writefile{lof}{\select@language{spanish}}
\@writefile{lot}{\defcounter {refsection}{0}\relax }\@writefile{lot}{\select@language{spanish}}
\@input{chapters/gracias.aux}
\abx@aux@cite{cerati}
\@input{chapters/dedicatoria.aux}
\@input{chapters/abstract.aux}
\@writefile{toc}{\defcounter {refsection}{0}\relax }\@writefile{toc}{\contentsline {chapter}{\'Indice de Figuras}{viii}{chapter*.2}}
\@writefile{toc}{\defcounter {refsection}{0}\relax }\@writefile{toc}{\contentsline {chapter}{\unhbox \voidb@x \bgroup \let \unhbox \voidb@x \setbox \@tempboxa \hbox {I\global \mathchardef \accent@spacefactor \spacefactor }\accent 19 I\egroup \spacefactor \accent@spacefactor \futurelet \@let@token ndice de C\unhbox \voidb@x \bgroup \let \unhbox \voidb@x \setbox \@tempboxa \hbox {o\global \mathchardef \accent@spacefactor \spacefactor }\accent 19 o\egroup \spacefactor \accent@spacefactor \futurelet \@let@token digos}{ix}{chapter*.3}}
\@input{chapters/1-intro.aux}
\abx@aux@cite{akay2001scanning}
\abx@aux@cite{akil2016neuroscience}
\abx@aux@cite{norris2015developing}
\abx@aux@cite{dominique2006NeuralEng}
\@input{chapters/2-estadoArte.aux}
\abx@aux@cite{dawson1931edwin}
\abx@aux@cite{jeong2015wireless}
\abx@aux@cite{Lewis1968}
\abx@aux@cite{Lewis1968-IEEE}
\abx@aux@cite{eliasmith2004neural}
\abx@aux@cite{HODGKIN1952}
\abx@aux@cite{markram2006blue}
\abx@aux@cite{rall2011core}
\abx@aux@cite{hines1997neuron}
\abx@aux@cite{dimitrov2011information}
\abx@aux@cite{van1988real}
\abx@aux@cite{shannon1948}
\abx@aux@cite{scott2004optimal}
\abx@aux@cite{todorov2004optimality}
\abx@aux@cite{todorov2002optimal}
\abx@aux@cite{HBProject2015}
\abx@aux@cite{fregnac2014neuroscience}
\@input{chapters/3-Educacion.aux}
\abx@aux@cite{handelsman2004scientific}
\abx@aux@cite{hoskins2008using}
\abx@aux@cite{maillardet2004outcome}
\abx@aux@cite{baillie2004effective}
\abx@aux@cite{kalman2008successful}
\abx@aux@cite{wankat2015teaching}
\abx@aux@cite{crawley2001cdio}
\abx@aux@cite{in1996learning}
\@input{chapters/4-Contenidos.aux}
\abx@aux@cite{dayan2001theoretical}
\abx@aux@cite{izhikevich2007}
\abx@aux@cite{lytton2007computer}
\abx@aux@cite{purves2007}
\abx@aux@cite{quiroga2013principles}
\abx@aux@cite{schutter2009computational}
\abx@aux@cite{sterratt2011principles}
\abx@aux@cite{leek2016ModernSci}
\abx@aux@cite{jonas2016could}
\abx@aux@cite{schiff2012neural}
\abx@aux@cite{izhikevich2000}
\abx@aux@cite{brette2007}
\abx@aux@cite{gerstner2002}
\abx@aux@cite{gerstner2014}
\abx@aux@cite{victor1997metric}
\abx@aux@cite{victor2005spike}
\abx@aux@cite{van2001novel}
\abx@aux@cite{quiroga2004unsupervised}
\abx@aux@cite{marre2012mapping}
\abx@aux@cite{feng2003computational}
\abx@aux@cite{rojas2011differential}
\abx@aux@cite{dauvermann2015computational}
\abx@aux@cite{anticevic2015bridging}
\@input{chapters/5-Laboratorio.aux}
\abx@aux@cite{wilensky1999gaslab}
\abx@aux@cite{schettino2014neurolab}
\abx@aux@cite{neuronPython2009}
\abx@aux@cite{eyal2014dendrites}
\abx@aux@cite{molitor2006matlab}
\abx@aux@cite{yan2010experimental}
\abx@aux@cite{jackson2014neurophysiological}
\abx@aux@cite{klimesch1999eeg}
\abx@aux@cite{teplan2002fundamentals}
\@input{chapters/6-Conclusiones.aux}
\@writefile{toc}{\defcounter {refsection}{0}\relax }\@writefile{toc}{\contentsline {chapter}{Ap\IeC {\'e}ndices}{50}{section*.11}}
\@input{chapters/Apendice-1.aux}
\abx@aux@cite{hodgkin1949effect}
\abx@aux@cite{Piwkowska2009}
