\select@language {spanish}
\boolfalse {citerequest}\boolfalse {citetracker}\boolfalse {pagetracker}\boolfalse {backtracker}\relax 
\defcounter {refsection}{0}\relax 
\select@language {spanish}
\defcounter {refsection}{0}\relax 
\addvspace {10\p@ }
\defcounter {refsection}{0}\relax 
\contentsline {figure}{\numberline {1.1}{\ignorespaces Modelo conceptual de variados factores que contribuyen a mejorar la investigaci\IeC {\'o}n innovativa\cite {norris2015developing}.\relax }}{2}{figure.caption.4}
\defcounter {refsection}{0}\relax 
\addvspace {10\p@ }
\defcounter {refsection}{0}\relax 
\contentsline {figure}{\numberline {2.1}{\ignorespaces Modelo el\IeC {\'e}ctrico de la neurona, mostrado por Hodgkin y Huxley en su publicaci\IeC {\'o}n de 1952\cite {HODGKIN1952}.\relax }}{9}{figure.caption.5}
\defcounter {refsection}{0}\relax 
\contentsline {figure}{\numberline {2.2}{\ignorespaces Dibujo de una neurona, se\IeC {\~n}alando sus partes m\IeC {\'a}s caracter\IeC {\'\i }sticas. Imagen con licencia CC BY-SA.\relax }}{10}{figure.caption.6}
\defcounter {refsection}{0}\relax 
\contentsline {figure}{\numberline {2.3}{\ignorespaces Dibujo esquem\IeC {\'a}tico de control \IeC {\'o}ptimo en lazo cerrado. Imagen extra\IeC {\'\i }da de \cite {scott2004optimal}, modificada de\cite {todorov2004optimality}.\relax }}{12}{figure.caption.7}
\defcounter {refsection}{0}\relax 
\contentsline {figure}{\numberline {2.4}{\ignorespaces Programa del MIT, mostrando la estructura del minor en neurociencia. Extraido desde \url {https://bcs.mit.edu}\relax }}{17}{figure.caption.8}
\defcounter {refsection}{0}\relax 
\addvspace {10\p@ }
\defcounter {refsection}{0}\relax 
\addvspace {10\p@ }
\defcounter {refsection}{0}\relax 
\addvspace {10\p@ }
\defcounter {refsection}{0}\relax 
\addvspace {10\p@ }
\defcounter {refsection}{0}\relax 
\addvspace {10\p@ }
\defcounter {refsection}{0}\relax 
\contentsline {figure}{\numberline {A.1}{\ignorespaces Circuito equivalente para un trozo de membrana celular. Adaptado de\cite {Piwkowska2009}\relax }}{55}{figure.caption.12}
