\relax 
\providecommand\hyper@newdestlabel[2]{}
\@writefile{toc}{\defcounter {refsection}{0}\relax }\@writefile{toc}{\contentsline {chapter}{\numberline {A}Apuntes para la Unidad 2}{51}{appendix.Alph1}}
\@writefile{lof}{\defcounter {refsection}{0}\relax }\@writefile{lof}{\addvspace {10\p@ }}
\@writefile{lot}{\defcounter {refsection}{0}\relax }\@writefile{lot}{\addvspace {10\p@ }}
\@writefile{locode}{\defcounter {refsection}{0}\relax }\@writefile{locode}{\addvspace {10\p@ }}
\@writefile{loa}{\defcounter {refsection}{0}\relax }\@writefile{loa}{\addvspace {10\p@ }}
\newlabel{cap:Anexo1}{{A}{51}{Apuntes para la Unidad 2}{appendix.Alph1}{}}
\@writefile{toc}{\defcounter {refsection}{0}\relax }\@writefile{toc}{\contentsline {section}{\numberline {A.1}Ecuaci\IeC {\'o}n de Nernst}{51}{section.Alph1.1}}
\newlabel{sec:Nerst}{{A.1}{51}{Ecuación de Nernst}{section.Alph1.1}{}}
\newlabel{ec:nernst}{{A.1}{51}{Ecuación de Nernst}{equation.Alph1.1.1}{}}
\@writefile{toc}{\defcounter {refsection}{0}\relax }\@writefile{toc}{\contentsline {section}{\numberline {A.2}Ecuaci\IeC {\'o}n de Goldman-Huxley-Katz}{52}{section.Alph1.2}}
\newlabel{ec:GHK}{{A.2}{52}{Ecuación de Goldman-Huxley-Katz}{equation.Alph1.2.2}{}}
\@writefile{toc}{\defcounter {refsection}{0}\relax }\@writefile{toc}{\contentsline {section}{\numberline {A.3}Ecuaci\IeC {\'o}n de Hodking y Huxley}{53}{section.Alph1.3}}
\newlabel{sec:HH}{{A.3}{53}{Ecuación de Hodking y Huxley}{section.Alph1.3}{}}
\newlabel{eq:gMembrana}{{A.3}{54}{Ecuación de Hodking y Huxley}{equation.Alph1.3.3}{}}
\newlabel{eq:ecMembrana}{{A.4}{54}{Ecuación de Hodking y Huxley}{equation.Alph1.3.4}{}}
\@writefile{lof}{\defcounter {refsection}{0}\relax }\@writefile{lof}{\contentsline {figure}{\numberline {A.1}{\ignorespaces Circuito equivalente para un trozo de membrana celular. Adaptado de\cite {Piwkowska2009}\relax }}{55}{figure.caption.12}}
\newlabel{fig:modeloMembrana}{{A.1}{55}{Circuito equivalente para un trozo de membrana celular. Adaptado de\cite {Piwkowska2009}\relax }{figure.caption.12}{}}
\newlabel{eq:membrana}{{A.7}{55}{Ecuación de Hodking y Huxley}{equation.Alph1.3.7}{}}
\@writefile{toc}{\defcounter {refsection}{0}\relax }\@writefile{toc}{\contentsline {section}{\numberline {A.4}Ecuaciones de canales}{56}{section.Alph1.4}}
\newlabel{sec:channels}{{A.4}{56}{Ecuaciones de canales}{section.Alph1.4}{}}
\@writefile{toc}{\defcounter {refsection}{0}\relax }\@writefile{toc}{\contentsline {subsection}{\numberline {A.4.1}Ecuaciones de Canal de Sodio.}{57}{subsection.Alph1.4.1}}
\newlabel{eq:sodio1}{{A.9}{57}{Ecuaciones de Canal de Sodio}{equation.Alph1.4.9}{}}
\newlabel{eq:sodio2}{{A.10}{57}{Ecuaciones de Canal de Sodio}{equation.Alph1.4.9}{}}
\newlabel{eq:sodio3}{{A.11}{57}{Ecuaciones de Canal de Sodio}{equation.Alph1.4.9}{}}
\newlabel{eq:am}{{A.12}{57}{Ecuaciones de Canal de Sodio}{equation.Alph1.4.12}{}}
\newlabel{eq:bm}{{A.13}{57}{Ecuaciones de Canal de Sodio}{equation.Alph1.4.12}{}}
\newlabel{eq:ah}{{A.14}{57}{Ecuaciones de Canal de Sodio}{equation.Alph1.4.14}{}}
\newlabel{eq:bh}{{A.15}{57}{Ecuaciones de Canal de Sodio}{equation.Alph1.4.14}{}}
\@writefile{toc}{\defcounter {refsection}{0}\relax }\@writefile{toc}{\contentsline {subsection}{\numberline {A.4.2}Ecuaciones de Canal de Potasio}{57}{subsection.Alph1.4.2}}
\newlabel{eq:potasio1}{{A.16}{57}{Ecuaciones de Canal de Potasio}{equation.Alph1.4.16}{}}
\newlabel{eq:potasio2}{{A.17}{57}{Ecuaciones de Canal de Potasio}{equation.Alph1.4.16}{}}
\newlabel{eq:an}{{A.18}{58}{Ecuaciones de Canal de Potasio}{equation.Alph1.4.18}{}}
\newlabel{eq:bn}{{A.19}{58}{Ecuaciones de Canal de Potasio}{equation.Alph1.4.18}{}}
\@setckpt{chapters/Apendice-1}{
\setcounter{page}{59}
\setcounter{equation}{19}
\setcounter{enumi}{4}
\setcounter{enumii}{0}
\setcounter{enumiii}{0}
\setcounter{enumiv}{0}
\setcounter{footnote}{0}
\setcounter{mpfootnote}{0}
\setcounter{part}{0}
\setcounter{chapter}{1}
\setcounter{section}{4}
\setcounter{subsection}{2}
\setcounter{subsubsection}{0}
\setcounter{paragraph}{0}
\setcounter{subparagraph}{0}
\setcounter{figure}{1}
\setcounter{table}{0}
\setcounter{float@type}{16}
\setcounter{parentequation}{0}
\setcounter{FancyVerbLine}{0}
\setcounter{subfigure}{0}
\setcounter{lofdepth}{1}
\setcounter{subtable}{0}
\setcounter{lotdepth}{1}
\setcounter{Item}{33}
\setcounter{Hfootnote}{46}
\setcounter{bookmark@seq@number}{71}
\setcounter{ContinuedFloat}{0}
\setcounter{LT@tables}{0}
\setcounter{LT@chunks}{0}
\setcounter{@pps}{0}
\setcounter{@ppsavesec}{0}
\setcounter{@ppsaveapp}{0}
\setcounter{AlgoLine}{0}
\setcounter{algocfline}{0}
\setcounter{algocfproc}{0}
\setcounter{algocf}{0}
\setcounter{ALC@unique}{0}
\setcounter{ALC@line}{0}
\setcounter{ALC@rem}{0}
\setcounter{ALC@depth}{0}
\setcounter{lstnumber}{1}
\setcounter{NAT@ctr}{0}
\setcounter{btxromaniannumeral}{0}
\setcounter{teorema}{0}
\setcounter{ejemplo}{0}
\setcounter{definicion}{0}
\setcounter{lema}{0}
\setcounter{AM@survey}{0}
\setcounter{code}{0}
\setcounter{locodedepth}{1}
\setcounter{tabx@nest}{0}
\setcounter{listtotal}{0}
\setcounter{listcount}{0}
\setcounter{liststart}{0}
\setcounter{liststop}{0}
\setcounter{citecount}{0}
\setcounter{citetotal}{0}
\setcounter{multicitecount}{0}
\setcounter{multicitetotal}{0}
\setcounter{instcount}{180}
\setcounter{maxnames}{3}
\setcounter{minnames}{1}
\setcounter{maxitems}{3}
\setcounter{minitems}{1}
\setcounter{citecounter}{0}
\setcounter{savedcitecounter}{0}
\setcounter{uniquelist}{0}
\setcounter{uniquename}{0}
\setcounter{refsection}{0}
\setcounter{refsegment}{0}
\setcounter{maxextratitle}{0}
\setcounter{maxextratitleyear}{0}
\setcounter{maxextrayear}{0}
\setcounter{maxextraalpha}{0}
\setcounter{abbrvpenalty}{50}
\setcounter{highnamepenalty}{50}
\setcounter{lownamepenalty}{25}
\setcounter{maxparens}{3}
\setcounter{parenlevel}{0}
\setcounter{mincomprange}{10}
\setcounter{maxcomprange}{100000}
\setcounter{mincompwidth}{1}
\setcounter{afterword}{0}
\setcounter{savedafterword}{0}
\setcounter{annotator}{0}
\setcounter{savedannotator}{0}
\setcounter{author}{0}
\setcounter{savedauthor}{0}
\setcounter{bookauthor}{0}
\setcounter{savedbookauthor}{0}
\setcounter{commentator}{0}
\setcounter{savedcommentator}{0}
\setcounter{editor}{0}
\setcounter{savededitor}{0}
\setcounter{editora}{0}
\setcounter{savededitora}{0}
\setcounter{editorb}{0}
\setcounter{savededitorb}{0}
\setcounter{editorc}{0}
\setcounter{savededitorc}{0}
\setcounter{foreword}{0}
\setcounter{savedforeword}{0}
\setcounter{holder}{0}
\setcounter{savedholder}{0}
\setcounter{introduction}{0}
\setcounter{savedintroduction}{0}
\setcounter{namea}{0}
\setcounter{savednamea}{0}
\setcounter{nameb}{0}
\setcounter{savednameb}{0}
\setcounter{namec}{0}
\setcounter{savednamec}{0}
\setcounter{translator}{0}
\setcounter{savedtranslator}{0}
\setcounter{shortauthor}{0}
\setcounter{savedshortauthor}{0}
\setcounter{shorteditor}{0}
\setcounter{savedshorteditor}{0}
\setcounter{labelname}{0}
\setcounter{savedlabelname}{0}
\setcounter{institution}{0}
\setcounter{savedinstitution}{0}
\setcounter{lista}{0}
\setcounter{savedlista}{0}
\setcounter{listb}{0}
\setcounter{savedlistb}{0}
\setcounter{listc}{0}
\setcounter{savedlistc}{0}
\setcounter{listd}{0}
\setcounter{savedlistd}{0}
\setcounter{liste}{0}
\setcounter{savedliste}{0}
\setcounter{listf}{0}
\setcounter{savedlistf}{0}
\setcounter{location}{0}
\setcounter{savedlocation}{0}
\setcounter{organization}{0}
\setcounter{savedorganization}{0}
\setcounter{origlocation}{0}
\setcounter{savedoriglocation}{0}
\setcounter{origpublisher}{0}
\setcounter{savedorigpublisher}{0}
\setcounter{publisher}{0}
\setcounter{savedpublisher}{0}
\setcounter{language}{0}
\setcounter{savedlanguage}{0}
\setcounter{pageref}{0}
\setcounter{savedpageref}{0}
\setcounter{textcitecount}{0}
\setcounter{textcitetotal}{0}
\setcounter{textcitemaxnames}{0}
\setcounter{biburlnumpenalty}{0}
\setcounter{biburlucpenalty}{0}
\setcounter{biburllcpenalty}{0}
\setcounter{smartand}{1}
\setcounter{bbx:relatedcount}{0}
\setcounter{bbx:relatedtotal}{0}
\setcounter{section@level}{0}
\setcounter{lstlisting}{0}
}
